tidy data Review
…
# `filter()`

---
## filter [1 of 3]

`filter` selects rows according to some set of conditions.  
- Valid with `==`
- Can use `%in%` with a vector `c()`.

```r
FastFood %>% filter(restaurant == "Taco Bell")
```

```
## # A tibble: 115 x 18
##       X1 restaurant item  calories cal_fat total_fat sat_fat trans_fat
##    <dbl> <chr>      <chr>    <dbl>   <dbl>     <dbl>   <dbl>     <dbl>
##  1   401 Taco Bell  1/2 ~      540     230        26       7         1
##  2   402 Taco Bell  1/2 ~      460     170        18       7         1
##  3   403 Taco Bell  7-La~      510     170        19       7         0
##  4   404 Taco Bell  Bean~      370     100        11       4         0
##  5   405 Taco Bell  Beef~      550     200        22       8         0
##  6   406 Taco Bell  Beef~      440     160        18       5         0
##  7   407 Taco Bell  Blac~      410     110        12       4         0
##  8   408 Taco Bell  Burr~      420     140        16       7         0
##  9   409 Taco Bell  Burr~      390     110        12       5         0
## 10   410 Taco Bell  Burr~      390     120        13       5         0
## # ... with 105 more rows, and 10 more variables: cholesterol <dbl>,
## #   sodium <dbl>, total_carb <dbl>, fiber <dbl>, sugar <dbl>,
## #   protein <dbl>, vit_a <dbl>, vit_c <dbl>, calcium <dbl>, salad <chr>
```

```r
FastFood %>% filter(restaurant %in% c("Taco Bell","Burger King"))
```

```
## # A tibble: 185 x 18
##       X1 restaurant item  calories cal_fat total_fat sat_fat trans_fat
##    <dbl> <chr>      <chr>    <dbl>   <dbl>     <dbl>   <dbl>     <dbl>
##  1   193 Burger Ki~ Amer~     1550    1134       126      47       8  
##  2   194 Burger Ki~ Baco~     1000     585        65      24       3  
##  3   195 Burger Ki~ Baco~      330     140        16       7       0  
##  4   196 Burger Ki~ Baco~      290     120        14       6       0.5
##  5   197 Burger Ki~ Baco~     1040     630        48      28       2.5
##  6   198 Burger Ki~ Baco~      730     351        39       9       0  
##  7   199 Burger Ki~ BBQ ~     1100     675        75      29       3  
##  8   200 Burger Ki~ Chee~      300     130        14       6       0  
##  9   201 Burger Ki~ Doub~      520     280        31      14       1  
## 10   202 Burger Ki~ Doub~      450     230        26      12       1  
## # ... with 175 more rows, and 10 more variables: cholesterol <dbl>,
## #   sodium <dbl>, total_carb <dbl>, fiber <dbl>, sugar <dbl>,
## #   protein <dbl>, vit_a <dbl>, vit_c <dbl>, calcium <dbl>, salad <chr>
```
…
---
## filter [2 of 3]

`filter` selects rows according to some set of conditions.  
- Can use `%in%` with a vector `c()`.

<small>

```r
FastFood %>% filter(restaurant%in%c("Taco Bell","Burger King"))
```

```
## # A tibble: 185 x 18
##       X1 restaurant item  calories cal_fat total_fat sat_fat trans_fat
##    <dbl> <chr>      <chr>    <dbl>   <dbl>     <dbl>   <dbl>     <dbl>
##  1   193 Burger Ki~ Amer~     1550    1134       126      47       8  
##  2   194 Burger Ki~ Baco~     1000     585        65      24       3  
##  3   195 Burger Ki~ Baco~      330     140        16       7       0  
##  4   196 Burger Ki~ Baco~      290     120        14       6       0.5
##  5   197 Burger Ki~ Baco~     1040     630        48      28       2.5
##  6   198 Burger Ki~ Baco~      730     351        39       9       0  
##  7   199 Burger Ki~ BBQ ~     1100     675        75      29       3  
##  8   200 Burger Ki~ Chee~      300     130        14       6       0  
##  9   201 Burger Ki~ Doub~      520     280        31      14       1  
## 10   202 Burger Ki~ Doub~      450     230        26      12       1  
## # ... with 175 more rows, and 10 more variables: cholesterol <dbl>,
## #   sodium <dbl>, total_carb <dbl>, fiber <dbl>, sugar <dbl>,
## #   protein <dbl>, vit_a <dbl>, vit_c <dbl>, calcium <dbl>, salad <chr>
```
…
---
class: inverse
## select [1/2]

`select` selects columns according to some set of names/conditions.  

<small>

```r
FastFood %>% select(restaurant, calories)
```

```
## # A tibble: 515 x 2
##    restaurant calories
##    <chr>         <dbl>
##  1 Mcdonalds       380
##  2 Mcdonalds       840
##  3 Mcdonalds      1130
##  4 Mcdonalds       750
##  5 Mcdonalds       920
##  6 Mcdonalds       540
##  7 Mcdonalds       300
##  8 Mcdonalds       510
##  9 Mcdonalds       430
## 10 Mcdonalds       770
## # ... with 505 more rows
```

---
class: inverse
## select [2/2]

`select` selects columns according to some set of names/conditions.  

<small>

```r
FastFood %>% select(restaurant,starts_with("vit"))
```

```
## # A tibble: 515 x 3
##    restaurant vit_a vit_c
##    <chr>      <dbl> <dbl>
##  1 Mcdonalds      4    20
##  2 Mcdonalds      6    20
##  3 Mcdonalds     10    20
##  4 Mcdonalds      6    25
##  5 Mcdonalds      6    20
##  6 Mcdonalds     10     2
##  7 Mcdonalds     10     2
##  8 Mcdonalds      0     4
##  9 Mcdonalds     20     4
## 10 Mcdonalds     20     6
## # ... with 505 more rows
```

---
class: inverse
## select [2/2]

`select` selects columns according to some set of names/conditions.  Negative selection can occur.

<small>

```r
FastFood %>% select(-restaurant)
```

```
## # A tibble: 515 x 17
##       X1 item  calories cal_fat total_fat sat_fat trans_fat cholesterol
##    <dbl> <chr>    <dbl>   <dbl>     <dbl>   <dbl>     <dbl>       <dbl>
##  1     1 Arti~      380      60         7       2       0            95
##  2     2 Sing~      840     410        45      17       1.5         130
##  3     3 Doub~     1130     600        67      27       3           220
##  4     4 Gril~      750     280        31      10       0.5         155
##  5     5 Cris~      920     410        45      12       0.5         120
##  6     6 Big ~      540     250        28      10       1            80
##  7     7 Chee~      300     100        12       5       0.5          40
##  8     8 Clas~      510     210        24       4       0            65
##  9     9 Doub~      430     190        21      11       1            85
## 10    10 Doub~      770     400        45      21       2.5         175
## # ... with 505 more rows, and 9 more variables: sodium <dbl>,
## #   total_carb <dbl>, fiber <dbl>, sugar <dbl>, protein <dbl>,
## #   vit_a <dbl>, vit_c <dbl>, calcium <dbl>, salad <chr>
```
…
`mutate()` and `transmute()` are the core method for adding variables [columns] to existing data.  The key difference is that `mutate()` retains existing variables while `transmute()` drops them.  Let's see it for sodium, rescaled to grams.

*mutate* will keep all columns.

<small>

```r
FastFood %>% 
  mutate(Sodium.Grams = sodium / 1000) %>%
  select(restaurant,Sodium.Grams,sodium,everything())
```

```
## # A tibble: 515 x 19
##    restaurant Sodium.Grams sodium    X1 item  calories cal_fat total_fat
##    <chr>             <dbl>  <dbl> <dbl> <chr>    <dbl>   <dbl>     <dbl>
##  1 Mcdonalds          1.11   1110     1 Arti~      380      60         7
##  2 Mcdonalds          1.58   1580     2 Sing~      840     410        45
##  3 Mcdonalds          1.92   1920     3 Doub~     1130     600        67
##  4 Mcdonalds          1.94   1940     4 Gril~      750     280        31
##  5 Mcdonalds          1.98   1980     5 Cris~      920     410        45
##  6 Mcdonalds          0.95    950     6 Big ~      540     250        28
##  7 Mcdonalds          0.68    680     7 Chee~      300     100        12
##  8 Mcdonalds          1.04   1040     8 Clas~      510     210        24
##  9 Mcdonalds          1.04   1040     9 Doub~      430     190        21
## 10 Mcdonalds          1.29   1290    10 Doub~      770     400        45
## # ... with 505 more rows, and 11 more variables: sat_fat <dbl>,
## #   trans_fat <dbl>, cholesterol <dbl>, total_carb <dbl>, fiber <dbl>,
## #   sugar <dbl>, protein <dbl>, vit_a <dbl>, vit_c <dbl>, calcium <dbl>,
## #   salad <chr>
```
…
# `transmute()`

---
## transmute

*transmute* will only keep the called columns.

<small>

```r
FastFood %>% transmute(Sodium.Grams = sodium / 1000)
```

```
## # A tibble: 515 x 1
##    Sodium.Grams
##           <dbl>
##  1         1.11
##  2         1.58
##  3         1.92
##  4         1.94
##  5         1.98
##  6         0.95
##  7         0.68
##  8         1.04
##  9         1.04
## 10         1.29
## # ... with 505 more rows
```
…
