tidyTuesday does Pizza | rww.science
…
I will use this data; it contains some Oregon pizzarias.

pizza_datafiniti %>% filter(province=="OR")

## # A tibble: 122 x 10
##    name  address city  country province latitude longitude categories
##    <chr> <chr>   <chr> <chr>   <chr>       <dbl>     <dbl> <chr>     
##  1 Cobu… 1710 C… Spri… US      OR           44.1     -123. Restauran…
##  2 Cobu… 1710 C… Spri… US      OR           44.1     -123. Restauran…
##  3 Cobu… 1710 C… Spri… US      OR           44.1     -123. Restauran…
##  4 Cobu… 1710 C… Spri… US      OR           44.1     -123. Restauran…
##  5 Cobu… 1710 C… Spri… US      OR           44.1     -123. Restauran…
##  6 Cobu… 1710 C… Spri… US      OR           44.1     -123. Restauran…
##  7 Cobu… 1710 C… Spri… US      OR           44.1     -123. Restauran…
##  8 Cobu… 1710 C… Spri… US      OR           44.1     -123. Restauran…
##  9 Cobu… 1710 C… Spri… US      OR           44.1     -123. Restauran…
## 10 Cobu… 1710 C… Spri… US      OR           44.1     -123. Restauran…
## # … with 112 more rows, and 2 more variables: price_range_min <dbl>,
## #   price_range_max <dbl>
…
