The Economist's Visualization Errors | rww.science
…
##      date           percent_responding_right percent_responding_wrong
##  Length:85          Min.   :40.00            Min.   :41.00           
##  Class :character   1st Qu.:42.00            1st Qu.:43.00           
##  Mode  :character   Median :44.00            Median :45.00           
##                     Mean   :43.71            Mean   :44.51           
##                     3rd Qu.:45.00            3rd Qu.:45.00           
##                     Max.   :47.00            Max.   :48.00

# The variable names are too long and terrible.  Let me change them.
names(brexit) <- c("Date","Right","Wrong")
# The dates are also not read as proper dates.  Let me fix that.  It can also be fixed by coercion in esquisse
brexit$Date <- as.Date(brexit$Date, "%d/%m/%y")
brexit

## # A tibble: 85 x 3
##    Date       Right Wrong
##    <date>     <dbl> <dbl>
##  1 2016-08-02    46    42
##  2 2016-08-09    45    44
##  3 2016-08-17    46    43
##  4 2016-08-23    45    43
##  5 2016-08-31    47    44
##  6 2016-09-14    46    43
##  7 2016-10-12    45    44
##  8 2016-10-20    45    44
##  9 2016-11-15    46    43
## 10 2016-11-29    44    45
## # … with 75 more rows

The data are structured side by side and that makes it hard for R [or anything] to draw axes because it needs to know the boundaries for the axes. I need to stack the rights and wrongs into one column with an associated label in another column for Right and Wrong. That is reshaping data; pivoting longer and wider in the language of tidyr.

# My first step is to stack the percent reporting on top of each other to make color and fill work properly.  I am going to take wider data [two columns of data] and stack them on top of each other.  What am I going to name this new stacked column?  "direction" and which columns do I wish to stack?  c(Right,Wrong)
My.Brexit <- brexit %>% pivot_longer(.,names_to = "direction",cols = c(Right,Wrong))
My.Brexit

## # A tibble: 170 x 3
##    Date       direction value
##    <date>     <chr>     <dbl>
##  1 2016-08-02 Right        46
##  2 2016-08-02 Wrong        42
##  3 2016-08-09 Right        45
##  4 2016-08-09 Wrong        44
##  5 2016-08-17 Right        46
##  6 2016-08-17 Wrong        43
##  7 2016-08-23 Right        45
##  8 2016-08-23 Wrong        43
##  9 2016-08-31 Right        47
## 10 2016-08-31 Wrong        44
## # … with 160 more rows
…
trade

gridExtra allows us to combine multiple plots into one. I build two plots and grid them together in the last line.

library(gridExtra)
trade <- readr::read_csv("https://raw.githubusercontent.com/rfordatascience/tidytuesday/master/data/2019/2019-04-16/trade.csv")
trade

## # A tibble: 22 x 3
##     year trade_deficit manufacture_employment
##    <dbl>         <dbl>                  <dbl>
##  1  1995      -3.38e10              17244583.
##  2  1996      -3.95e10              17236750 
##  3  1997      -4.97e10              17417833.
##  4  1998      -5.69e10              17560000 
##  5  1999      -6.87e10              17322667.
##  6  2000      -8.38e10              17265250 
##  7  2001      -8.31e10              16440583.
##  8  2002      -1.03e11              15256833.
##  9  2003      -1.24e11              14508500 
## 10  2004      -1.62e11              14314750 
## # … with 12 more rows
…
That is fairly simple and it works. The trick here was to use a grid to create two plots and stack them.

The Last One: No Solution Provided

The authors of the post give you good advice on how to solve this. I contend that there is a great plot to generate using esquisse though it may not be just one plot. Have a go. If you wish to, you can peruse the appropriate timelines for #tidyTuesday and see what people came up with though in many cases, this will be apparent so use appropriate citations; it is easy to do with the examples here in this Markdown.

women_research <- readr::read_csv("https://raw.githubusercontent.com/rfordatascience/tidytuesday/master/data/2019/2019-04-16/women_research.csv")
women_research

## # A tibble: 60 x 3
##    country        field           percent_women
##    <chr>          <chr>                   <dbl>
##  1 Japan          Health sciences          0.24
##  2 Chile          Health sciences          0.43
##  3 United Kingdom Health sciences          0.45
##  4 United States  Health sciences          0.46
##  5 Mexico         Health sciences          0.46
##  6 Denmark        Health sciences          0.47
##  7 EU28           Health sciences          0.48
##  8 France         Health sciences          0.48
##  9 Canada         Health sciences          0.49
## 10 Australia      Health sciences          0.5 
## # … with 50 more rows
…
