Visualising Leaders
…
class: split-40
count: false

.left-code-Entry-auto[

```r
*Archigos
```
]
 
.right-output-Entry-auto[

```
# A tibble: 3,409 x 30
   obsid leadid ccode idacr leader startdate eindate    enddate eoutdate   entry
   <chr> <chr>  <dbl> <chr> <chr>  <chr>     <date>     <chr>   <date>     <chr>
 1 USA-… 81dcc…     2 USA   Grant  1869-03-… 1869-03-04 1877-0… 1877-03-04 Regu…
 2 USA-… 81dcc…     2 USA   Hayes  1877-03-… 1877-03-04 1881-0… 1881-03-04 Regu…
 3 USA-… 81dcf…     2 USA   Garfi… 1881-03-… 1881-03-04 1881-0… 1881-09-19 Regu…
 4 USA-… 81dcf…     2 USA   Arthur 1881-09-… 1881-09-19 1885-0… 1885-03-04 Regu…
 5 USA-… 34fb1…     2 USA   Cleve… 1885-03-… 1885-03-04 1889-0… 1889-03-04 Regu…
 6 USA-… 81dcf…     2 USA   Harri… 1889-03-… 1889-03-04 1893-0… 1893-03-04 Regu…
 7 USA-… 34fb1…     2 USA   Cleve… 1893-03-… 1893-03-04 1897-0… 1897-03-04 Regu…
 8 USA-… 81dcf…     2 USA   McKin… 1897-03-… 1897-03-04 1901-0… 1901-09-14 Regu…
 9 USA-… 81dd2…     2 USA   Roose… 1901-09-… 1901-09-14 1909-0… 1909-03-04 Regu…
10 USA-… 81dd2…     2 USA   Taft   1909-03-… 1909-03-04 1913-0… 1913-03-04 Regu…
# … with 3,399 more rows, and 20 more variables: exit <chr>, exitcode <chr>,
#   prevtimesinoffice <dbl>, posttenurefate <chr>, gender <chr>, yrborn <dbl>,
#   yrdied <dbl>, borndate <chr>, ebirthdate <date>, deathdate <chr>,
#   edeathdate <date>, dbpediauri <chr>, numentry <dbl>, numexit <dbl>,
#   numexitcode <dbl>, numposttenurefate <dbl>, fties <chr>, ftcur <chr>,
#   tenure <Duration>, tenureY <dbl>
```
…
