Scraping EPL Salary Data | rww.science
…
## # A tibble: 4 x 3
##   Position Mean.Base.Salary  sdBS
##   <fct>               <dbl> <dbl>
## 1 D                    25.9  3.73
## 2 F                    24.7  3.75
## 3 GK                   28.8  4.66
## 4 M                    24.8  5.25

EPL.Result %>% group_by(Position,Team) %>% summarise(Mean.Base.Salary=mean(Base.Num, na.rm=TRUE),sdBS=sd(Base.Num, na.rm = TRUE))

## # A tibble: 80 x 4
## # Groups:   Position [4]
##    Position Team                                         Mean.Base.Salary  sdBS
##    <fct>    <fct>                                                   <dbl> <dbl>
##  1 D        Https:www.spotrac.comeplAFC Bournemouth                  25    4.38
##  2 D        Https:www.spotrac.comeplarsenal                          24.8  3.63
##  3 D        Https:www.spotrac.comeplaston Villa                      24.8  2.87
##  4 D        Https:www.spotrac.comeplbrighton Hove Albion             27.7  2.14
##  5 D        Https:www.spotrac.comeplburnley                          28.1  2.75
##  6 D        Https:www.spotrac.comeplchelsea                          25.4  2.44
##  7 D        Https:www.spotrac.comeplcrystal Palace                   27.8  3.19
##  8 D        Https:www.spotrac.comepleverton                          26.9  3.87
##  9 D        Https:www.spotrac.comeplleicester City                   25.9  5.59
## 10 D        Https:www.spotrac.comeplliverpool                        25    3.42
## # … with 70 more rows
…
