…
Seasonal: pattern exists when a series is influenced by seasonal factors (e.g., the quarter of the year, the month, or day of the week).

Moving Averages

The general idea is a moving window. We will set .before and .after as follows.

aus_exports <- global_economy %>%
  filter(Country == "Australia") %>%
  mutate(
    `5-MA` = slider::slide_dbl(Exports, mean, .before = 2, .after = 2, .complete = TRUE)
  )
aus_exports

## # A tsibble: 58 x 10 [1Y]
## # Key:       Country [1]
##    Country  Code   Year       GDP Growth   CPI Imports Exports Population `5-MA`
##    <fct>    <fct> <dbl>     <dbl>  <dbl> <dbl>   <dbl>   <dbl>      <dbl>  <dbl>
##  1 Austral~ AUS    1960   1.86e10  NA     7.96    14.1    13.0   10276477   NA  
##  2 Austral~ AUS    1961   1.96e10   2.49  8.14    15.0    12.4   10483000   NA  
##  3 Austral~ AUS    1962   1.99e10   1.30  8.12    12.6    13.9   10742000   13.5
##  4 Austral~ AUS    1963   2.15e10   6.21  8.17    13.8    13.0   10950000   13.5
##  5 Austral~ AUS    1964   2.38e10   6.98  8.40    13.8    14.9   11167000   13.6
##  6 Austral~ AUS    1965   2.59e10   5.98  8.69    15.3    13.2   11388000   13.4
##  7 Austral~ AUS    1966   2.73e10   2.38  8.98    15.1    12.9   11651000   13.3
##  8 Austral~ AUS    1967   3.04e10   6.30  9.29    13.9    12.9   11799000   12.7
##  9 Austral~ AUS    1968   3.27e10   5.10  9.52    14.5    12.3   12009000   12.6
## 10 Austral~ AUS    1969   3.66e10   7.04  9.83    13.3    12.0   12263000   12.6
## # ... with 48 more rows
…
We can even have moving averages of moving averages.

aus_exports2 <- aus_exports %>% 
  mutate(`2x5-MA` = slider::slide_dbl(`5-MA`, mean, .before = 1, .after = 0, .complete = TRUE)
  )
aus_exports2

## # A tsibble: 58 x 11 [1Y]
## # Key:       Country [1]
##    Country Code   Year     GDP Growth   CPI Imports Exports Population `5-MA`
##    <fct>   <fct> <dbl>   <dbl>  <dbl> <dbl>   <dbl>   <dbl>      <dbl>  <dbl>
##  1 Austra~ AUS    1960 1.86e10  NA     7.96    14.1    13.0   10276477   NA  
##  2 Austra~ AUS    1961 1.96e10   2.49  8.14    15.0    12.4   10483000   NA  
##  3 Austra~ AUS    1962 1.99e10   1.30  8.12    12.6    13.9   10742000   13.5
##  4 Austra~ AUS    1963 2.15e10   6.21  8.17    13.8    13.0   10950000   13.5
##  5 Austra~ AUS    1964 2.38e10   6.98  8.40    13.8    14.9   11167000   13.6
##  6 Austra~ AUS    1965 2.59e10   5.98  8.69    15.3    13.2   11388000   13.4
##  7 Austra~ AUS    1966 2.73e10   2.38  8.98    15.1    12.9   11651000   13.3
##  8 Austra~ AUS    1967 3.04e10   6.30  9.29    13.9    12.9   11799000   12.7
##  9 Austra~ AUS    1968 3.27e10   5.10  9.52    14.5    12.3   12009000   12.6
## 10 Austra~ AUS    1969 3.66e10   7.04  9.83    13.3    12.0   12263000   12.6
## # ... with 48 more rows, and 1 more variable: `2x5-MA` <dbl>
…
Alternative: use a Box-Cox transformation, and then use additive decomposition.

Logs turn multiplicative relationship into an additive relationship:

\[y_t = S_t \times T_t \times E_t \quad\Rightarrow\quad
\log y_t = \log S_t + \log T_t + \log R_t.\]

US Retail Employment

us_retail_employment <- us_employment %>%
  filter(year(Month) >= 1990, Title == "Retail Trade") %>%
  select(-Series_ID)
us_retail_employment

## # A tsibble: 357 x 3 [1M]
##       Month Title        Employed
##       <mth> <chr>           <dbl>
##  1 1990 Jan Retail Trade   13256.
##  2 1990 Feb Retail Trade   12966.
##  3 1990 Mar Retail Trade   12938.
##  4 1990 Apr Retail Trade   13012.
##  5 1990 May Retail Trade   13108.
##  6 1990 Jun Retail Trade   13183.
##  7 1990 Jul Retail Trade   13170.
##  8 1990 Aug Retail Trade   13160.
##  9 1990 Sep Retail Trade   13113.
## 10 1990 Oct Retail Trade   13185.
## # ... with 347 more rows
…
The season window controls loess bandwidth applied to detrended subseries.

Robustness weights based on remainder.

Default season window = 13

Default trend window = nextodd(ceiling((1.5*period)/(1-(1.5/s.window)))

When things go wrong

The ABS stuff-up

employed

## # A tsibble: 440 x 4 [1M]
##        Time Month  Year Employed
##       <mth> <ord> <dbl>    <dbl>
##  1 1978 Feb Feb    1978    5986.
##  2 1978 Mar Mar    1978    6041.
##  3 1978 Apr Apr    1978    6054.
##  4 1978 May May    1978    6038.
##  5 1978 Jun Jun    1978    6031.
##  6 1978 Jul Jul    1978    6036.
##  7 1978 Aug Aug    1978    6005.
##  8 1978 Sep Sep    1978    6024.
##  9 1978 Oct Oct    1978    6046.
## 10 1978 Nov Nov    1978    6034.
## # ... with 430 more rows
…
