…
In 12 states, there appear to be and in a few of them, those effects are large. Modelling this covariate seems useful. At the same time, this does nothing about the broad trends.

NYTAgg.COVID %>%
    model(TSLM(New.DeathsP ~ Day.of.Week)) %>%
    glance() %>%
    filter(p_value < 0.05)

# A tibble: 43 x 16
   state       .model    r_squared adj_r_squared sigma2 statistic  p_value    df
   <chr*>      <chr>         <dbl>         <dbl>  <dbl>     <dbl>    <dbl> <int>
 1 Alabama     TSLM(New…    0.129         0.115  1.80e3      9.22 1.99e- 9     7
 2 Arizona     TSLM(New…    0.164         0.150  3.00e3     12.2  1.50e-12     7
 3 California  TSLM(New…    0.0867        0.0721 2.63e4      5.92 6.40e- 6     7
 4 Colorado    TSLM(New…    0.0662        0.0512 4.35e2      4.42 2.49e- 4     7
 5 Connecticut TSLM(New…    0.0905        0.0759 8.32e2      6.20 3.19e- 6     7
 6 Delaware    TSLM(New…    0.0408        0.0254 4.31e1      2.65 1.57e- 2     7
 7 Florida     TSLM(New…    0.127         0.113  3.10e3      9.06 2.96e- 9     7
 8 Georgia     TSLM(New…    0.163         0.149  2.04e3     12.1  1.94e-12     7
 9 Idaho       TSLM(New…    0.150         0.137  4.01e1     11.0  2.52e-11     7
10 Illinois    TSLM(New…    0.0820        0.0672 2.71e3      5.56 1.53e- 5     7
# … with 33 more rows, and 8 more variables: log_lik <dbl>, AIC <dbl>,
#   AICc <dbl>, BIC <dbl>, CV <dbl>, deviance <dbl>, df.residual <int>,
#   rank <int>
…
Forecast the models.

COVIDFC <- COVID.Models %>%
    forecast(h = 14, new_data = COVID.Agg.Test)

COVIDFC %>%
    accuracy(COVID.Agg.Test)

# A tibble: 520 x 11
   .model state          .type    ME  RMSE   MAE    MPE  MAPE  MASE RMSSE   ACF1
   <chr>  <chr*>         <chr> <dbl> <dbl> <dbl>  <dbl> <dbl> <dbl> <dbl>  <dbl>
 1 ARIMA  Alabama      … Test  NaN    NaN   NaN  NaN    NaN     NaN   NaN NA    
 2 ARIMA  Alaska       … Test  NaN    NaN   NaN  NaN    NaN     NaN   NaN NA    
 3 ARIMA  Arizona      … Test  NaN    NaN   NaN  NaN    NaN     NaN   NaN NA    
 4 ARIMA  Arkansas     … Test  NaN    NaN   NaN  NaN    NaN     NaN   NaN NA    
 5 ARIMA  California   … Test   43.5  559.  442.  -2.48  16.2   NaN   NaN  0.343
 6 ARIMA  Colorado     … Test  -43.8  524.  451. -14.7   33.5   NaN   NaN -0.292
 7 ARIMA  Connecticut  … Test  NaN    NaN   NaN  NaN    NaN     NaN   NaN NA    
 8 ARIMA  Delaware     … Test  NaN    NaN   NaN  NaN    NaN     NaN   NaN NA    
 9 ARIMA  District of C… Test  NaN    NaN   NaN  NaN    NaN     NaN   NaN NA    
10 ARIMA  Florida      … Test  NaN    NaN   NaN  NaN    NaN     NaN   NaN NA    
# … with 510 more rows
…
