Time Series Features
…
# When things go wrong

---

## The ABS stuff-up

---

```r
employed
```

```
## # A tsibble: 440 x 4 [1M]
##        Time Month  Year Employed
##       <mth> <ord> <dbl>    <dbl>
##  1 1978 Feb Feb    1978    5986.
##  2 1978 Mar Mar    1978    6041.
##  3 1978 Apr Apr    1978    6054.
##  4 1978 May May    1978    6038.
##  5 1978 Jun Jun    1978    6031.
##  6 1978 Jul Jul    1978    6036.
##  7 1978 Aug Aug    1978    6005.
##  8 1978 Sep Sep    1978    6024.
##  9 1978 Oct Oct    1978    6046.
## 10 1978 Nov Nov    1978    6034.
## # … with 430 more rows
```
…
