Trump's Tweets, Part II | rww.science
…
tweet_topicM <- tidy(tweets_lda, matrix="gamma")
top_tweets <- tweet_topicM %>% group_by(topic) %>% top_n(10, gamma) %>%
    ungroup() %>%
    arrange(topic, -gamma)
top_tweets

## # A tibble: 70 x 3
##    document topic gamma
##    <chr>    <int> <dbl>
##  1 1888         1 0.172
##  2 555          1 0.171
##  3 252          1 0.170
##  4 234          1 0.167
##  5 1830         1 0.166
##  6 1340         1 0.166
##  7 2525         1 0.166
##  8 434          1 0.163
##  9 1101         1 0.162
## 10 399          1 0.162
## # … with 60 more rows
…
