Scraping the NFL Salary Cap Data with Python and R | rww.science
…
Cap.Pct
0
1
1.36
2.05
0
0.31
0.41
1.42
18.02
▇▁▁▁▁

NFL.Salary.Data %>% group_by(Team) %>% summarise(Total.Base.Salary=sum(Base.Salary))

## # A tibble: 32 x 2
##    Team               Total.Base.Salary
##    <fct>                          <dbl>
##  1 Arizona Cardinals          105629569
##  2 Atlanta Falcons            132367353
##  3 Baltimore Ravens           111906351
##  4 Buffalo Bills               94577460
##  5 Carolina Panthers          110158355
##  6 Chicago Bears               85128180
##  7 Cincinnati Bengals         134855807
##  8 Cleveland Browns           122139767
##  9 Dallas Cowboys             128347113
## 10 Denver Broncos             140672444
## # … with 22 more rows
…
