…
Model Fitting

Fit some models to the data.

COVID.Models <- COVID.Agg.Train %>%
    model(WDARIMA = ARIMA(New.CasesP ~ Day.of.Week))

Forecast the models.

COVIDFC <- COVID.Models %>%
    forecast(new_data = COVID.Agg.Test)
COVIDFC %>%
    accuracy(COVID.Agg.Test)

# A tibble: 52 x 11
   .model  state           .type      ME   RMSE    MAE     MPE  MAPE  MASE RMSSE
   <chr>   <chr*>          <chr>   <dbl>  <dbl>  <dbl>   <dbl> <dbl> <dbl> <dbl>
 1 WDARIMA Alabama       … Test  302.     547.   329.    46.2   55.3   NaN   NaN
 2 WDARIMA Alaska        … Test  -13.4     82.3   66.0 -Inf    Inf     NaN   NaN
 3 WDARIMA Arizona       … Test   54.6    355.   317.     3.33  49.3   NaN   NaN
 4 WDARIMA Arkansas      … Test   72.6    104.    85.7   78.0   84.8   NaN   NaN
 5 WDARIMA California    … Test    9.47   726.   465.    -3.28  15.8   NaN   NaN
 6 WDARIMA Colorado      … Test  261.     553.   492.     6.21  30.6   NaN   NaN
 7 WDARIMA Connecticut   … Test  -65.3    336.   246.   NaN    Inf     NaN   NaN
 8 WDARIMA Delaware      … Test   41.6     70.2   63.5    7.32  19.6   NaN   NaN
 9 WDARIMA District of Co… Test    0.615   32.6   21.3   -6.40  18.8   NaN   NaN
10 WDARIMA Florida       … Test  919.    1550.  1238.     5.11  24.9   NaN   NaN
# … with 42 more rows, and 1 more variable: ACF1 <dbl>
…
Accuracy

FC.Cases <- NC.Models %>%
    forecast(h = 14)

FC.Cases %>%
    accuracy(COVID.Agg.Test)

# A tibble: 624 x 11
   .model state           .type      ME   RMSE    MAE      MPE  MAPE  MASE RMSSE
   <chr>  <chr*>          <chr>   <dbl>  <dbl>  <dbl>    <dbl> <dbl> <dbl> <dbl>
 1 ARIMA  Alabama       … Test   187.    457.   287.    12.5    60.3   NaN   NaN
 2 ARIMA  Alaska        … Test   -44.5   107.    82.0 -Inf     Inf     NaN   NaN
 3 ARIMA  Arizona       … Test   -23.9   227.   165.   -13.4    26.0   NaN   NaN
 4 ARIMA  Arkansas      … Test    28.9    65.4   56.4    0.434  35.5   NaN   NaN
 5 ARIMA  California    … Test  -318.    589.   540.   -14.1    20.0   NaN   NaN
 6 ARIMA  Colorado      … Test   108.    557.   484.    -4.91   32.6   NaN   NaN
 7 ARIMA  Connecticut   … Test  -155.    396.   323.  -Inf     Inf     NaN   NaN
 8 ARIMA  Delaware      … Test    12.7    48.0   42.5    0.506  13.6   NaN   NaN
 9 ARIMA  District of Co… Test    -9.02   39.2   32.9  -17.6    30.6   NaN   NaN
10 ARIMA  Florida       … Test   408.   1630.  1170.   -12.5    32.5   NaN   NaN
# … with 614 more rows, and 1 more variable: ACF1 <dbl>
…
Accuracy

FC.Deaths <- ND.Models %>%
    forecast(h = 14)

FC.Deaths %>%
    accuracy(COVID.Agg.Test)

# A tibble: 624 x 11
   .model state            .type      ME   RMSE    MAE     MPE  MAPE  MASE RMSSE
   <chr>  <chr*>           <chr>   <dbl>  <dbl>  <dbl>   <dbl> <dbl> <dbl> <dbl>
 1 ARIMA  Alabama        … Test    0.750 13.8   12.3    NaN    Inf     NaN   NaN
 2 ARIMA  Alaska         … Test    1.33   5.54   2.24  -Inf    Inf     NaN   NaN
 3 ARIMA  Arizona        … Test   10.1   16.7   14.1    Inf    Inf     NaN   NaN
 4 ARIMA  Arkansas       … Test   -4.83   5.69   4.83  -Inf    Inf     NaN   NaN
 5 ARIMA  California     … Test   -3.25  36.2   27.9     -8.28  28.9   NaN   NaN
 6 ARIMA  Colorado       … Test   10.0   29.8   11.5   -Inf    Inf     NaN   NaN
 7 ARIMA  Connecticut    … Test    2.12   5.59   4.03  -Inf    Inf     NaN   NaN
 8 ARIMA  Delaware       … Test   -1.13   2.23   1.72  -Inf    Inf     NaN   NaN
 9 ARIMA  District of Col… Test   -0.269  0.887  0.697 -Inf    Inf     NaN   NaN
10 ARIMA  Florida        … Test  -11.1   18.9   15.6    -69.3   74.6   NaN   NaN
# … with 614 more rows, and 1 more variable: ACF1 <dbl>
…
