…
In 12 states, there appear to be and in a few of them, those effects are large. Modelling this covariate seems useful. At the same time, this does nothing about the broad trends.

NYTAgg.COVID %>%
    model(TSLM(box_cox(New.Deaths, lambdaD) ~ Day.of.Week)) %>%
    glance() %>%
    filter(p_value < 0.05)

# A tibble: 47 x 16
   state       .model    r_squared adj_r_squared sigma2 statistic  p_value    df
   <chr*>      <chr>         <dbl>         <dbl>  <dbl>     <dbl>    <dbl> <int>
 1 Alabama     TSLM(box…    0.278         0.267   12.4      24.0  4.80e-24     7
 2 Alaska      TSLM(box…    0.0711        0.0562  14.6       4.77 1.06e- 4     7
 3 Arizona     TSLM(box…    0.461         0.452    6.87     53.2  2.72e-47     7
 4 Arkansas    TSLM(box…    0.0454        0.0301   7.54      2.97 7.67e- 3     7
 5 California  TSLM(box…    0.187         0.174    2.89     14.3  1.09e-14     7
 6 Colorado    TSLM(box…    0.109         0.0948   9.33      7.63 9.59e- 8     7
 7 Connecticut TSLM(box…    0.407         0.398   16.3      42.8  1.07e-39     7
 8 Delaware    TSLM(box…    0.0470        0.0317  16.5       3.07 6.00e- 3     7
 9 Florida     TSLM(box…    0.0749        0.0601   3.49      5.05 5.41e- 5     7
10 Georgia     TSLM(box…    0.356         0.346    3.35     34.5  3.80e-33     7
# … with 37 more rows, and 8 more variables: log_lik <dbl>, AIC <dbl>,
#   AICc <dbl>, BIC <dbl>, CV <dbl>, deviance <dbl>, df.residual <int>,
#   rank <int>
…
