…
## # A tibble: 4 x 3
##   Position Mean.Base.Salary  sdBS
##   <fct>               <dbl> <dbl>
## 1 D                    25.8  3.77
## 2 F                    24.6  3.80
## 3 GK                   28.9  4.63
## 4 M                    24.8  5.21

EPL.Result %>% group_by(Position,Team) %>% summarise(Mean.Base.Salary=mean(Base.Num, na.rm=TRUE),sdBS=sd(Base.Num, na.rm = TRUE))

## # A tibble: 80 x 4
## # Groups:   Position [4]
##    Position Team                                         Mean.Base.Salary  sdBS
##    <fct>    <fct>                                                   <dbl> <dbl>
##  1 D        Https:www.spotrac.comeplAFC Bournemouth                  25.1  4.30
##  2 D        Https:www.spotrac.comeplarsenal                          24.9  3.59
##  3 D        Https:www.spotrac.comeplaston Villa                      24.9  3.09
##  4 D        Https:www.spotrac.comeplbrighton Hove Albion             26.5  3.96
##  5 D        Https:www.spotrac.comeplburnley                          28.2  2.60
##  6 D        Https:www.spotrac.comeplchelsea                          25.3  2.66
##  7 D        Https:www.spotrac.comeplcrystal Palace                   27.8  3.19
##  8 D        Https:www.spotrac.comepleverton                          27    3.82
##  9 D        Https:www.spotrac.comeplleicester City                   26    5.81
## 10 D        Https:www.spotrac.comeplliverpool                        25    3.42
## # … with 70 more rows
…
