Tidyquant and CAPM
…
---

count: false

.panel1-TRReveal-auto[

```r
*Stocks.Tidy
```
]
 
.panel2-TRReveal-auto[

```
# A tibble: 2,558 × 8
   symbol date        open  high   low close   volume adjusted
   <chr>  <date>     <dbl> <dbl> <dbl> <dbl>    <dbl>    <dbl>
 1 MSFT   2016-10-03  57.4  57.5  57.1  57.4 19189500     53.1
 2 MSFT   2016-10-04  57.3  57.6  57.0  57.2 20085900     53.0
 3 MSFT   2016-10-05  57.3  58.0  57.3  57.6 16726400     53.3
 4 MSFT   2016-10-06  57.7  57.9  57.3  57.7 16212600     53.4
 5 MSFT   2016-10-07  57.8  58.0  57.4  57.8 20089000     53.5
 6 MSFT   2016-10-10  57.9  58.4  57.9  58.0 18196500     53.7
 7 MSFT   2016-10-11  57.9  58.0  56.9  57.2 26497400     52.9
 8 MSFT   2016-10-12  57.1  57.3  56.4  57.1 22177500     52.8
 9 MSFT   2016-10-13  56.7  57.3  56.3  56.9 25313700     52.7
10 MSFT   2016-10-14  57.1  57.7  57.1  57.4 27402500     53.1
# … with 2,548 more rows
```
…
---
count: false

.panel1-TRReveal-auto[

```r
Stocks.Tidy %>%
* group_by(symbol)
```
]
 
.panel2-TRReveal-auto[

```
# A tibble: 2,558 × 8
# Groups:   symbol [2]
   symbol date        open  high   low close   volume adjusted
   <chr>  <date>     <dbl> <dbl> <dbl> <dbl>    <dbl>    <dbl>
 1 MSFT   2016-10-03  57.4  57.5  57.1  57.4 19189500     53.1
 2 MSFT   2016-10-04  57.3  57.6  57.0  57.2 20085900     53.0
 3 MSFT   2016-10-05  57.3  58.0  57.3  57.6 16726400     53.3
 4 MSFT   2016-10-06  57.7  57.9  57.3  57.7 16212600     53.4
 5 MSFT   2016-10-07  57.8  58.0  57.4  57.8 20089000     53.5
 6 MSFT   2016-10-10  57.9  58.4  57.9  58.0 18196500     53.7
 7 MSFT   2016-10-11  57.9  58.0  56.9  57.2 26497400     52.9
 8 MSFT   2016-10-12  57.1  57.3  56.4  57.1 22177500     52.8
 9 MSFT   2016-10-13  56.7  57.3  56.3  56.9 25313700     52.7
10 MSFT   2016-10-14  57.1  57.7  57.1  57.4 27402500     53.1
# … with 2,548 more rows
```
…
.panel1-TRReveal-auto[

```r
Stocks.Tidy %>%
  group_by(symbol) %>%
* tq_transmute(select=adjusted, mutate_fun = periodReturn, period = "monthly")
```
]
 
.panel2-TRReveal-auto[

```
# A tibble: 122 × 3
# Groups:   symbol [2]
   symbol date       monthly.returns
   <chr>  <date>               <dbl>
 1 MSFT   2016-10-31         0.0435 
 2 MSFT   2016-11-30         0.0125 
 3 MSFT   2016-12-30         0.0312 
 4 MSFT   2017-01-31         0.0404 
 5 MSFT   2017-02-28        -0.00436
 6 MSFT   2017-03-31         0.0294 
 7 MSFT   2017-04-28         0.0395 
 8 MSFT   2017-05-31         0.0260 
 9 MSFT   2017-06-30        -0.0130 
10 MSFT   2017-07-31         0.0547 
# … with 112 more rows
```
…
.panel1-TRReveal-auto[

```r
Stocks.Tidy %>%
  group_by(symbol) %>%
  tq_transmute(select=adjusted, mutate_fun = periodReturn, period = "monthly") %>%
  pivot_wider(values_from = monthly.returns, names_from = symbol) -> Tidy.Returns
*Tidy.Returns
```
]
 
.panel2-TRReveal-auto[

```
# A tibble: 61 × 3
   date           MSFT   `^GSPC`
   <date>        <dbl>     <dbl>
 1 2016-10-31  0.0435  -0.0162  
 2 2016-11-30  0.0125   0.0342  
 3 2016-12-30  0.0312   0.0182  
 4 2017-01-31  0.0404   0.0179  
 5 2017-02-28 -0.00436  0.0372  
 6 2017-03-31  0.0294  -0.000389
 7 2017-04-28  0.0395   0.00909 
 8 2017-05-31  0.0260   0.0116  
 9 2017-06-30 -0.0130   0.00481 
10 2017-07-31  0.0547   0.0193  
# … with 51 more rows
```
…
<img src="index_files/figure-html/unnamed-chunk-17-1.svg" width="468" />

---
## Two pivots

`pivot_longer` and `pivot_wider` take data from wide to long and long to wide formats.  First, the help is extensive.  `?pivot_wider` or `?pivot_longer` even contain working examples.  The basic idea is to either encode or decode information into the column names.

```r
stocks
```

```
# A tibble: 61 × 3
   date       sp.returns msft.returns
   <date>          <dbl>        <dbl>
 1 2016-10-31  -0.0162        0.0435 
 2 2016-11-30   0.0342        0.0125 
 3 2016-12-30   0.0182        0.0312 
 4 2017-01-31   0.0179        0.0404 
 5 2017-02-28   0.0372       -0.00436
 6 2017-03-31  -0.000389      0.0294 
 7 2017-04-28   0.00909       0.0395 
 8 2017-05-31   0.0116        0.0260 
 9 2017-06-30   0.00481      -0.0130 
10 2017-07-31   0.0193        0.0547 
# … with 51 more rows
```

---
## Make them tidy

I want to take `sp.returns` and `msft.returns` and stack them into two columns with one `returns` representing the value of both variables and the other column a `ticker` that contains the source of that data.  The lengthened data are shown below.  The first argument to `pivot_longer` is always a set of variables to "stack".  radiant does this with `gather`.

```r
stocks %>% 
  pivot_longer(c(sp.returns, msft.returns), 
               names_to = "ticker", 
               values_to = "returns")
```

```
# A tibble: 122 × 3
   date       ticker        returns
   <date>     <chr>           <dbl>
 1 2016-10-31 sp.returns   -0.0162 
 2 2016-10-31 msft.returns  0.0435 
 3 2016-11-30 sp.returns    0.0342 
 4 2016-11-30 msft.returns  0.0125 
 5 2016-12-30 sp.returns    0.0182 
 6 2016-12-30 msft.returns  0.0312 
 7 2017-01-31 sp.returns    0.0179 
 8 2017-01-31 msft.returns  0.0404 
 9 2017-02-28 sp.returns    0.0372 
10 2017-02-28 msft.returns -0.00436
# … with 112 more rows
```

---
## Untidy/widen the data

To untidy the data, I need to specify any ID variables, in this case the date, and the variables that should provide the names (`ticker`) and values (`returns`).  This will return the original dataset `stocks`.  radiant does this with `spread`.

```r
stocks %>% pivot_longer(c(sp.returns, msft.returns), names_to = "ticker", values_to = "returns") %>% 
  pivot_wider(id_cols = date, 
              names_from = ticker, 
              values_from = returns)
```

```
# A tibble: 61 × 3
   date       sp.returns msft.returns
   <date>          <dbl>        <dbl>
 1 2016-10-31  -0.0162        0.0435 
 2 2016-11-30   0.0342        0.0125 
 3 2016-12-30   0.0182        0.0312 
 4 2017-01-31   0.0179        0.0404 
 5 2017-02-28   0.0372       -0.00436
 6 2017-03-31  -0.000389      0.0294 
 7 2017-04-28   0.00909       0.0395 
 8 2017-05-31   0.0116        0.0260 
 9 2017-06-30   0.00481      -0.0130 
10 2017-07-31   0.0193        0.0547 
# … with 51 more rows
```
