A Forecasting Workflow
…
---
# A bit on homework

```r
PBS %>% features(Cost, list(mean = mean, sd = sd))  %>% arrange(desc(mean))
```

```
## # A tibble: 336 x 6
##    Concession   Type        ATC1  ATC2       mean        sd
##    <chr>        <chr>       <chr> <chr>     <dbl>     <dbl>
##  1 Concessional Co-payments C     C10   24845501. 18384824.
##  2 Concessional Co-payments A     A02   16455044.  7498596.
##  3 Concessional Co-payments C     C09   15869141.  7038693.
##  4 Concessional Co-payments R     R03   11945939.  4802822.
##  5 Concessional Co-payments N     N06   10938864.  6635907.
##  6 Concessional Co-payments N     N05    9778107.  7684177.
##  7 General      Co-payments C     C10    8094232.  5193091.
##  8 Concessional Co-payments J     J01    7725842.  1492648.
##  9 Concessional Co-payments C     C08    7569233.  2028232.
## 10 Concessional Safety net  C     C10    7388557. 10170428.
## # ... with 326 more rows
```

```r
PBS %>% features(Cost, list(mean = mean, sd = sd))  %>% arrange(sd)
```

```
## # A tibble: 336 x 6
##    Concession   Type        ATC1  ATC2    mean    sd
##    <chr>        <chr>       <chr> <chr>  <dbl> <dbl>
##  1 General      Co-payments R     R      0      0   
##  2 General      Co-payments S     S      0      0   
##  3 General      Co-payments M     M02    0.683  1.40
##  4 General      Co-payments S     S03    1.30   4.06
##  5 General      Safety net  R     R      3.11   8.10
##  6 Concessional Safety net  R     R      6.64  12.6 
##  7 General      Co-payments A     A15    5.53  12.8 
##  8 General      Co-payments S     S02    2.82  16.9 
##  9 Concessional Co-payments R     R     14.8   22.5 
## 10 Concessional Safety net  J     J06    9.25  39.8 
## # ... with 326 more rows
```
…
