A First Flipbook with flipbookr
…
class: split-40
count: false

.left-code-ORCOVID-auto[

```r
# The Race to Open
*OR.County.COVID %>% filter(RankC > 26)
```
]
 
.right-output-ORCOVID-auto[

```
# A tibble: 670 x 21
   County Scraped.date Cases1 Deaths2 Negatives3 date       Negative.test.r…
   <chr>  <date>        <int>   <int>      <int> <date>                <dbl>
 1 Benton 2020-03-18       NA      NA         NA 2020-03-18               NA
 2 Clack… 2020-03-18       NA      NA         NA 2020-03-18               NA
 3 Desch… 2020-03-18       NA      NA         NA 2020-03-18               NA
 4 Lane   2020-03-18       NA      NA         NA 2020-03-18               NA
 5 Linn   2020-03-18       NA      NA         NA 2020-03-18               NA
 6 Marion 2020-03-18       NA      NA         NA 2020-03-18               NA
 7 Multn… 2020-03-18       NA      NA         NA 2020-03-18               NA
 8 Umati… 2020-03-18       NA      NA         NA 2020-03-18               NA
 9 Washi… 2020-03-18       NA      NA         NA 2020-03-18               NA
10 Yamhi… 2020-03-18       NA      NA         NA 2020-03-18               NA
# … with 660 more rows, and 14 more variables: Deaths <int>,
#   Number.of.cases <dbl>, Positive1 <int>, Negative3 <int>, Positive. <int>,
#   Deaths. <int>, Negative <int>, Positive <int>, New.Cases <dbl>,
#   New.Deaths <int>, Cases.MA7 <dbl>, Deaths.MA7 <dbl>, RankNC <int>,
#   RankC <int>
```
…
