…
library(knitr)
library(tidyverse)
library(tidyquant)
library(fpp3)
library(hrbrthemes)
library(kableExtra)

A bit on equities

tidyquant is a very handy source for equities data. The data are returned as a tibble.

Ford <- tq_get("F", from="2019-01-01")
Ford

## # A tibble: 582 x 8
##    symbol date        open  high   low close   volume adjusted
##    <chr>  <date>     <dbl> <dbl> <dbl> <dbl>    <dbl>    <dbl>
##  1 F      2019-01-02  7.53  8.02  7.48  7.9  47494400     7.28
##  2 F      2019-01-03  7.97  7.99  7.78  7.78 39172400     7.17
##  3 F      2019-01-04  7.91  8.12  7.85  8.08 43039800     7.45
##  4 F      2019-01-07  8.11  8.37  8.03  8.29 40729400     7.64
##  5 F      2019-01-08  8.42  8.54  8.35  8.37 45644000     7.72
##  6 F      2019-01-09  8.45  8.77  8.36  8.72 48404900     8.04
##  7 F      2019-01-10  8.71  8.77  8.45  8.67 39490400     7.99
##  8 F      2019-01-11  8.77  8.93  8.7   8.82 41559900     8.13
##  9 F      2019-01-14  8.8   9.06  8.76  8.99 44833800     8.29
## 10 F      2019-01-15  9.02  9.03  8.75  8.84 65311700     8.15
## # … with 572 more rows
…
DH1.Models <- Ind.Models %>% filter(!is_aggregated(symbol)) %>% select(DH1)
LBQ.Res <- Symbol.Table %>% map(function(x) { DH1.Models %>% filter(symbol==x) %>% LBQ.Stat(.)})
LBQ.Result <- LBQ.Res$symbol
LBQ.Res$symbol

## # A tibble: 57 x 4
##    symbol .model lb_stat lb_pvalue
##    <chr*> <chr>    <dbl>     <dbl>
##  1 ALK    DH1      15.4     0.908 
##  2 AME    DH1       9.08    0.997 
##  3 AOS    DH1      18.2     0.791 
##  4 BA     DH1      16.9     0.852 
##  5 CAT    DH1      19.3     0.735 
##  6 CHRW   DH1      36.2     0.0526
##  7 CMI    DH1      42.9     0.0103
##  8 CPRT   DH1      14.7     0.929 
##  9 CSX    DH1      35.2     0.0653
## 10 CTAS   DH1      42.0     0.0129
## # … with 47 more rows
…
