…
Model Fitting

Fit some models to the data.

COVID.Models <- COVID.Agg.Train %>%
    model(WDARIMA = ARIMA(New.CasesP ~ Day.of.Week))

Forecast the models.

COVIDFC <- COVID.Models %>%
    forecast(new_data = COVID.Agg.Test)
COVIDFC %>%
    accuracy(COVID.Agg.Test)

# A tibble: 52 x 11
   .model  state            .type      ME   RMSE   MAE     MPE  MAPE  MASE RMSSE
   <chr>   <chr*>           <chr>   <dbl>  <dbl> <dbl>   <dbl> <dbl> <dbl> <dbl>
 1 WDARIMA Alabama        … Test   116.    398.  237.   -10.3   71.8   NaN   NaN
 2 WDARIMA Alaska         … Test   -17.6   138.  104.  -Inf    Inf     NaN   NaN
 3 WDARIMA Arizona        … Test    94.2   354.  312.    11.3   51.8   NaN   NaN
 4 WDARIMA Arkansas       … Test    95.5   121.   99.2   93.0   94.9   NaN   NaN
 5 WDARIMA California     … Test  -108.    737.  569.    -8.18  20.7   NaN   NaN
 6 WDARIMA Colorado       … Test   308.    579.  480.    10.8   28.6   NaN   NaN
 7 WDARIMA Connecticut    … Test  -332.    456.  400.  -Inf    Inf     NaN   NaN
 8 WDARIMA Delaware       … Test   -39.4    64.5  48.6  -16.8   19.1   NaN   NaN
 9 WDARIMA District of Col… Test    -8.87   33.1  26.0  -14.8   24.1   NaN   NaN
10 WDARIMA Florida        … Test   352.   1367.  963.    -6.17  23.2   NaN   NaN
# … with 42 more rows, and 1 more variable: ACF1 <dbl>
…
Accuracy

FC.Cases <- NC.Models %>%
    forecast(h = 14)

FC.Cases %>%
    accuracy(COVID.Agg.Test)

# A tibble: 624 x 11
   .model state            .type      ME   RMSE    MAE     MPE  MAPE  MASE RMSSE
   <chr>  <chr*>           <chr>   <dbl>  <dbl>  <dbl>   <dbl> <dbl> <dbl> <dbl>
 1 ARIMA  Alabama        … Test   101.    439.   277.   -32.5   95.4   NaN   NaN
 2 ARIMA  Alaska         … Test   -43.0   147.   115.  -Inf    Inf     NaN   NaN
 3 ARIMA  Arizona        … Test   -51.6   212.   160.   -16.7   26.4   NaN   NaN
 4 ARIMA  Arkansas       … Test     8.19   67.8   57.7  -24.0   51.8   NaN   NaN
 5 ARIMA  California     … Test  -415.    685.   586.   -20.3   24.8   NaN   NaN
 6 ARIMA  Colorado       … Test    83.8   529.   458.    -5.56  31.9   NaN   NaN
 7 ARIMA  Connecticut    … Test  -176.    370.   305.  -Inf    Inf     NaN   NaN
 8 ARIMA  Delaware       … Test    -5.35   55.4   47.8   -6.35  17.2   NaN   NaN
 9 ARIMA  District of Col… Test   -13.2    37.3   31.6  -20.6   30.6   NaN   NaN
10 ARIMA  Florida        … Test   145.   1484.  1069.   -13.8   29.2   NaN   NaN
# … with 614 more rows, and 1 more variable: ACF1 <dbl>
…
Accuracy

FC.Deaths <- ND.Models %>%
    forecast(h = 14)

FC.Deaths %>%
    accuracy(COVID.Agg.Test)

# A tibble: 624 x 11
   .model state            .type      ME   RMSE    MAE     MPE  MAPE  MASE RMSSE
   <chr>  <chr*>           <chr>   <dbl>  <dbl>  <dbl>   <dbl> <dbl> <dbl> <dbl>
 1 ARIMA  Alabama        … Test    1.74  12.4   10.7    NaN    Inf     NaN   NaN
 2 ARIMA  Alaska         … Test    0.888  4.86   1.86  -Inf    Inf     NaN   NaN
 3 ARIMA  Arizona        … Test   10.1   17.1   14.9    Inf    Inf     NaN   NaN
 4 ARIMA  Arkansas       … Test   -4.84   5.55   4.84  -Inf    Inf     NaN   NaN
 5 ARIMA  California     … Test   -3.21  31.8   22.2     -7.51  23.4   NaN   NaN
 6 ARIMA  Colorado       … Test    7.81  26.1    9.19  -Inf    Inf     NaN   NaN
 7 ARIMA  Connecticut    … Test    2.64   5.61   4.11   NaN    Inf     NaN   NaN
 8 ARIMA  Delaware       … Test   -1.64   2.55   2.10  -Inf    Inf     NaN   NaN
 9 ARIMA  District of Col… Test   -0.368  0.947  0.697 -Inf    Inf     NaN   NaN
10 ARIMA  Florida        … Test  -12.3   18.9   15.8    -66.1   70.2   NaN   NaN
# … with 614 more rows, and 1 more variable: ACF1 <dbl>
…
