Animating COVID-19
…
count: false
 
An Animation
.panel1-Anim-auto[

```r
*NYT.COVID
```
]
 
.panel2-Anim-auto[

```
# A tsibble: 20,931 x 7 [1D]
# Key:       state [51]
# Groups:    state [51]
   date       state    fips cases deaths New.Cases New.Deaths
   <date>     <chr>   <int> <int>  <int>     <int>      <int>
 1 2020-03-13 Alabama     1     6      0        NA         NA
 2 2020-03-14 Alabama     1    12      0         6          0
 3 2020-03-15 Alabama     1    23      0        11          0
 4 2020-03-16 Alabama     1    29      0         6          0
 5 2020-03-17 Alabama     1    39      0        10          0
 6 2020-03-18 Alabama     1    51      0        12          0
 7 2020-03-19 Alabama     1    78      0        27          0
 8 2020-03-20 Alabama     1   106      0        28          0
 9 2020-03-21 Alabama     1   131      0        25          0
10 2020-03-22 Alabama     1   157      0        26          0
# ... with 20,921 more rows
```
…
count: false
 
A GeoFacet
.panel1-GeoF-auto[

```r
*NYT.COVID
```
]
 
.panel2-GeoF-auto[

```
# A tsibble: 20,931 x 7 [1D]
# Key:       state [51]
# Groups:    state [51]
   date       state    fips cases deaths New.Cases New.Deaths
   <date>     <chr>   <int> <int>  <int>     <int>      <int>
 1 2020-03-13 Alabama     1     6      0        NA         NA
 2 2020-03-14 Alabama     1    12      0         6          0
 3 2020-03-15 Alabama     1    23      0        11          0
 4 2020-03-16 Alabama     1    29      0         6          0
 5 2020-03-17 Alabama     1    39      0        10          0
 6 2020-03-18 Alabama     1    51      0        12          0
 7 2020-03-19 Alabama     1    78      0        27          0
 8 2020-03-20 Alabama     1   106      0        28          0
 9 2020-03-21 Alabama     1   131      0        25          0
10 2020-03-22 Alabama     1   157      0        26          0
# ... with 20,921 more rows
```
…
A GeoFacet
.panel1-GeoF-auto[

```r
NYT.COVID %>%
* as_tibble()
```
]
 
.panel2-GeoF-auto[

```
# A tibble: 20,931 x 7
   date       state    fips cases deaths New.Cases New.Deaths
   <date>     <chr>   <int> <int>  <int>     <int>      <int>
 1 2020-03-13 Alabama     1     6      0        NA         NA
 2 2020-03-14 Alabama     1    12      0         6          0
 3 2020-03-15 Alabama     1    23      0        11          0
 4 2020-03-16 Alabama     1    29      0         6          0
 5 2020-03-17 Alabama     1    39      0        10          0
 6 2020-03-18 Alabama     1    51      0        12          0
 7 2020-03-19 Alabama     1    78      0        27          0
 8 2020-03-20 Alabama     1   106      0        28          0
 9 2020-03-21 Alabama     1   131      0        25          0
10 2020-03-22 Alabama     1   157      0        26          0
# ... with 20,921 more rows
```
…
```r
NYT.COVID %>%
  as_tibble() %>%
* left_join(., state_ranks %>%
*             select(state, name) %>%
*             distinct(),
*           by=c("state" = "name"))
```
]
 
.panel2-GeoF-auto[

```
# A tibble: 20,931 x 8
   date       state    fips cases deaths New.Cases New.Deaths state.y
   <date>     <chr>   <int> <int>  <int>     <int>      <int> <chr>  
 1 2020-03-13 Alabama     1     6      0        NA         NA AL     
 2 2020-03-14 Alabama     1    12      0         6          0 AL     
 3 2020-03-15 Alabama     1    23      0        11          0 AL     
 4 2020-03-16 Alabama     1    29      0         6          0 AL     
 5 2020-03-17 Alabama     1    39      0        10          0 AL     
 6 2020-03-18 Alabama     1    51      0        12          0 AL     
 7 2020-03-19 Alabama     1    78      0        27          0 AL     
 8 2020-03-20 Alabama     1   106      0        28          0 AL     
 9 2020-03-21 Alabama     1   131      0        25          0 AL     
10 2020-03-22 Alabama     1   157      0        26          0 AL     
# ... with 20,921 more rows
```
…
```r
NYT.COVID %>%
  as_tibble() %>%
  left_join(., state_ranks %>%
              select(state, name) %>%
              distinct(),
            by=c("state" = "name")) %>%
* as_tsibble(index=date, key=state)
```
]
 
.panel2-GeoF-auto[

```
# A tsibble: 20,931 x 8 [1D]
# Key:       state [51]
   date       state    fips cases deaths New.Cases New.Deaths state.y
   <date>     <chr>   <int> <int>  <int>     <int>      <int> <chr>  
 1 2020-03-13 Alabama     1     6      0        NA         NA AL     
 2 2020-03-14 Alabama     1    12      0         6          0 AL     
 3 2020-03-15 Alabama     1    23      0        11          0 AL     
 4 2020-03-16 Alabama     1    29      0         6          0 AL     
 5 2020-03-17 Alabama     1    39      0        10          0 AL     
 6 2020-03-18 Alabama     1    51      0        12          0 AL     
 7 2020-03-19 Alabama     1    78      0        27          0 AL     
 8 2020-03-20 Alabama     1   106      0        28          0 AL     
 9 2020-03-21 Alabama     1   131      0        25          0 AL     
10 2020-03-22 Alabama     1   157      0        26          0 AL     
# ... with 20,921 more rows
```
…
